<?xml version="1.0" encoding="UTF-8" standalone="no"?>
<!-- Created with Inkscape (http://www.inkscape.org/) -->

<svg
   width="64"
   height="64"
   id="svg5181"
   version="1.1"
   inkscape:version="1.2.2 (b0a8486541, 2022-12-01)"
   sodipodi:docname="constructionCurveComb.svg"
   xmlns:inkscape="http://www.inkscape.org/namespaces/inkscape"
   xmlns:sodipodi="http://sodipodi.sourceforge.net/DTD/sodipodi-0.dtd"
   xmlns:xlink="http://www.w3.org/1999/xlink"
   xmlns="http://www.w3.org/2000/svg"
   xmlns:svg="http://www.w3.org/2000/svg"
   xmlns:rdf="http://www.w3.org/1999/02/22-rdf-syntax-ns#"
   xmlns:cc="http://creativecommons.org/ns#"
   xmlns:dc="http://purl.org/dc/elements/1.1/">
  <defs
     id="defs5183">
    <linearGradient
       id="linearGradient849">
      <stop
         style="stop-color:#a7e8ff;stop-opacity:1"
         offset="0"
         id="stop845" />
      <stop
         style="stop-color:#67b1cc;stop-opacity:1"
         offset="1"
         id="stop847" />
    </linearGradient>
    <radialGradient
       inkscape:collect="always"
       xlink:href="#linearGradient849"
       id="radialGradient843"
       cx="32.188843"
       cy="17.742489"
       fx="32.188843"
       fy="17.742489"
       r="11.729613"
       gradientUnits="userSpaceOnUse"
       gradientTransform="matrix(0.59049,0,0,0.59049,-5.2722796,-15.782837)" />
    <radialGradient
       inkscape:collect="always"
       xlink:href="#linearGradient849"
       id="radialGradient872"
       gradientUnits="userSpaceOnUse"
       gradientTransform="matrix(0.59049,0,0,0.59049,23.758363,-44.544676)"
       cx="32.188843"
       cy="17.742489"
       fx="32.188843"
       fy="17.742489"
       r="11.729613" />
  </defs>
  <sodipodi:namedview
     id="base"
     pagecolor="#ffffff"
     bordercolor="#666666"
     borderopacity="1.0"
     inkscape:pageopacity="0.0"
     inkscape:pageshadow="2"
     inkscape:zoom="5.6876079"
     inkscape:cx="26.988499"
     inkscape:cy="28.834618"
     inkscape:current-layer="layer1"
     showgrid="true"
     inkscape:grid-bbox="true"
     inkscape:document-units="px"
     inkscape:window-width="1366"
     inkscape:window-height="693"
     inkscape:window-x="0"
     inkscape:window-y="0"
     inkscape:window-maximized="1"
     inkscape:pagecheckerboard="true"
     inkscape:showpageshadow="false"
     inkscape:deskcolor="#d1d1d1" />
  <metadata
     id="metadata5186">
    <rdf:RDF>
      <cc:Work
         rdf:about="">
        <dc:format>image/svg+xml</dc:format>
        <dc:type
           rdf:resource="http://purl.org/dc/dcmitype/StillImage" />
      </cc:Work>
    </rdf:RDF>
  </metadata>
  <g
     id="layer1"
     inkscape:label="Layer 1"
     inkscape:groupmode="layer"
     transform="translate(0,16)"
     style="display:inline">
    <path
       style="opacity:1;fill:#ad151f;fill-opacity:1;stroke:#000000;stroke-width:1;stroke-linecap:round;stroke-linejoin:round;stroke-miterlimit:4;stroke-dasharray:none;stroke-dashoffset:0;stroke-opacity:1"
       d="M 36.234719,42.886129 C 36.233203,27.772001 21.377608,11.640544 5.1792152,11.606871 l 0.071283,4.275169 C 20.233304,15.871338 31.247026,29.375018 31.789514,42.887358 Z"
       id="path901"
       sodipodi:nodetypes="ccccc" />
    <circle
       style="opacity:1;fill:url(#radialGradient843);fill-opacity:1;stroke:#000000;stroke-width:0.59049;stroke-linecap:round;stroke-linejoin:round;stroke-miterlimit:4;stroke-dasharray:none;stroke-dashoffset:0;stroke-opacity:1"
       id="path835"
       cx="13.73491"
       cy="-5.3060751"
       r="3.0411496"
       transform="rotate(90)" />
    <circle
       r="3.0411496"
       cy="-34.067913"
       cx="42.765553"
       id="circle870"
       style="opacity:1;fill:url(#radialGradient872);fill-opacity:1;stroke:#000000;stroke-width:0.59049;stroke-linecap:round;stroke-linejoin:round;stroke-miterlimit:4;stroke-dasharray:none;stroke-dashoffset:0;stroke-opacity:1"
       transform="rotate(90)" />
    <path
       style="fill:none;stroke:#0000fe;stroke-width:2;stroke-linecap:round;stroke-linejoin:miter;stroke-dasharray:none;stroke-opacity:1"
       d="M 6.9512557,9.1325142 10.765783,-9.9441676"
       id="path406"
       sodipodi:nodetypes="cc" />
    <path
       style="fill:none;stroke:#0000fe;stroke-width:2;stroke-linecap:round;stroke-linejoin:miter;stroke-dasharray:none;stroke-opacity:1"
       d="M 16.894714,12.835076 24.890117,-3.28518"
       id="path962"
       sodipodi:nodetypes="cc" />
    <path
       style="fill:none;stroke:#0000fe;stroke-width:2;stroke-linecap:round;stroke-linejoin:miter;stroke-dasharray:none;stroke-opacity:1"
       d="M 24.787967,18.125689 36.808127,2.9786617"
       id="path964"
       sodipodi:nodetypes="cc" />
    <path
       style="fill:none;stroke:#0000fe;stroke-width:2;stroke-linecap:round;stroke-linejoin:miter;stroke-dasharray:none;stroke-opacity:1"
       d="M 31.230323,24.830541 45.92283,13.218434"
       id="path966"
       sodipodi:nodetypes="cc" />
    <path
       style="fill:none;stroke:#0000fe;stroke-width:2;stroke-linecap:round;stroke-linejoin:miter;stroke-dasharray:none;stroke-opacity:1"
       d="M 35.286231,33.130682 51.778276,24.027327"
       id="path968"
       sodipodi:nodetypes="cc" />
    <path
       style="fill:none;stroke:#0000fe;stroke-width:2;stroke-linecap:round;stroke-linejoin:miter;stroke-dasharray:none;stroke-opacity:1"
       d="M 38.44326,41.014353 57.366136,35.301538"
       id="path970"
       sodipodi:nodetypes="cc" />
    <path
       style="fill:none;stroke:#00ff00;stroke-width:5;stroke-linecap:round;stroke-linejoin:miter;stroke-dasharray:none;stroke-opacity:1"
       d="M 58.392919,34.532373 C 53.456021,11.239794 36.506609,-5.4230509 11.843271,-11.240143"
       id="path1068"
       sodipodi:nodetypes="cc" />
    <path
       style="fill:none;stroke:#000000;stroke-width:1;stroke-linecap:round;stroke-linejoin:miter;stroke-dasharray:none;stroke-opacity:1"
       d="M 61.104965,33.743622 C 56.168067,10.451043 37.162132,-8.0578753 12.498794,-13.874967"
       id="path1070"
       sodipodi:nodetypes="cc" />
    <path
       style="fill:none;stroke:#000000;stroke-width:1;stroke-linecap:round;stroke-linejoin:miter;stroke-dasharray:none;stroke-opacity:1"
       d="M 55.522032,34.734482 C 50.585134,11.441904 35.639264,-3.261971 10.975925,-9.0790631"
       id="path1072"
       sodipodi:nodetypes="cc" />
    <path
       style="fill:none;stroke:#000000;stroke-width:1px;stroke-linecap:round;stroke-linejoin:miter;stroke-opacity:1"
       d="M 12.296503,-13.918729 C 9.1681576,-14.794044 7.7458873,-9.8805961 10.751169,-9.0925"
       id="path1074"
       sodipodi:nodetypes="cc" />
    <path
       style="fill:none;stroke:#000000;stroke-width:1px;stroke-linecap:round;stroke-linejoin:miter;stroke-opacity:1"
       d="m 55.600538,35.094655 c 0.774324,3.852941 6.289809,2.688237 5.531854,-1.23505"
       id="path1076"
       sodipodi:nodetypes="cc" />
  </g>
</svg>
