<?xml version="1.0" encoding="UTF-8" standalone="no"?>
<!-- Created with Inkscape (http://www.inkscape.org/) -->

<svg
   width="64"
   height="64"
   id="svg5181"
   version="1.1"
   inkscape:version="1.2.2 (b0a8486541, 2022-12-01)"
   sodipodi:docname="editCompound.svg"
   xml:space="preserve"
   xmlns:inkscape="http://www.inkscape.org/namespaces/inkscape"
   xmlns:sodipodi="http://sodipodi.sourceforge.net/DTD/sodipodi-0.dtd"
   xmlns:xlink="http://www.w3.org/1999/xlink"
   xmlns="http://www.w3.org/2000/svg"
   xmlns:svg="http://www.w3.org/2000/svg"
   xmlns:rdf="http://www.w3.org/1999/02/22-rdf-syntax-ns#"
   xmlns:cc="http://creativecommons.org/ns#"
   xmlns:dc="http://purl.org/dc/elements/1.1/"><defs
     id="defs5183"><linearGradient
       inkscape:collect="always"
       id="linearGradient4504"><stop
         style="stop-color:#ffffff;stop-opacity:1;"
         offset="0"
         id="stop4500" /><stop
         style="stop-color:#d4d6dc;stop-opacity:1;"
         offset="1"
         id="stop4502" /></linearGradient><linearGradient
       inkscape:collect="always"
       id="linearGradient4496"><stop
         style="stop-color:#0000b4;stop-opacity:1;"
         offset="0"
         id="stop4492" /><stop
         style="stop-color:#888bb1;stop-opacity:1;"
         offset="1"
         id="stop4494" /></linearGradient><linearGradient
       inkscape:collect="always"
       id="linearGradient2196"><stop
         style="stop-color:#ffffff;stop-opacity:1;"
         offset="0"
         id="stop2192" /><stop
         style="stop-color:#b4babf;stop-opacity:1;"
         offset="1"
         id="stop2194" /></linearGradient><linearGradient
       inkscape:collect="always"
       id="linearGradient1204"><stop
         style="stop-color:#d4a51a;stop-opacity:1;"
         offset="0"
         id="stop1200" /><stop
         style="stop-color:#d43b1a;stop-opacity:1;"
         offset="1"
         id="stop1202" /></linearGradient><linearGradient
       inkscape:collect="always"
       xlink:href="#linearGradient1204"
       id="linearGradient1206"
       x1="26.562679"
       y1="-3.3877363"
       x2="15.794856"
       y2="7.6617408"
       gradientUnits="userSpaceOnUse"
       gradientTransform="matrix(1.1268251,0,0,1.1268251,11.905401,-3.2221384)" /><linearGradient
       inkscape:collect="always"
       xlink:href="#linearGradient1204"
       id="linearGradient2180"
       x1="36.821026"
       y1="-1.4326861"
       x2="23.73859"
       y2="2.9117005"
       gradientUnits="userSpaceOnUse"
       gradientTransform="matrix(1.1268251,0,0,1.1268251,-4.0409462,-3.2221384)" /><linearGradient
       inkscape:collect="always"
       xlink:href="#linearGradient1204"
       id="linearGradient2190"
       x1="35.967003"
       y1="-7.2914834"
       x2="27.115267"
       y2="-2.0432918"
       gradientUnits="userSpaceOnUse"
       gradientTransform="matrix(1.1268251,0,0,1.1268251,-3.9845112,-3.2221384)" /><linearGradient
       inkscape:collect="always"
       xlink:href="#linearGradient2196"
       id="linearGradient2198"
       x1="47.636513"
       y1="5.1357923"
       x2="17.594118"
       y2="39.145828"
       gradientUnits="userSpaceOnUse"
       gradientTransform="matrix(1.1268251,0,0,1.1268251,-3.9845112,-3.2221384)" /><linearGradient
       inkscape:collect="always"
       xlink:href="#linearGradient1204"
       id="linearGradient4475"
       x1="-35.207504"
       y1="2.2930064"
       x2="-54.484653"
       y2="11.072179"
       gradientUnits="userSpaceOnUse"
       gradientTransform="matrix(1.1268251,0,0,1.1268251,81.198158,6.155071)" /><linearGradient
       inkscape:collect="always"
       xlink:href="#linearGradient4504"
       id="linearGradient4484"
       x1="-33.607204"
       y1="42.370911"
       x2="-48.554276"
       y2="51.226402"
       gradientUnits="userSpaceOnUse"
       gradientTransform="matrix(1.1268251,0,0,1.1268251,81.316587,-16.817813)" /><linearGradient
       inkscape:collect="always"
       xlink:href="#linearGradient4496"
       id="linearGradient4498"
       x1="-55.330482"
       y1="35.458382"
       x2="-32.273006"
       y2="15.173244"
       gradientUnits="userSpaceOnUse"
       gradientTransform="matrix(1.1268251,0,0,1.1268251,81.198158,-3.2221384)" /></defs><sodipodi:namedview
     id="base"
     pagecolor="#ffffff"
     bordercolor="#666666"
     borderopacity="1.0"
     inkscape:pageopacity="0.0"
     inkscape:pageshadow="2"
     inkscape:zoom="7.5625"
     inkscape:cx="32"
     inkscape:cy="32"
     inkscape:current-layer="layer1"
     showgrid="true"
     inkscape:grid-bbox="true"
     inkscape:document-units="px"
     inkscape:window-width="1366"
     inkscape:window-height="693"
     inkscape:window-x="0"
     inkscape:window-y="0"
     inkscape:window-maximized="1"
     inkscape:pagecheckerboard="true"
     inkscape:showpageshadow="false"
     inkscape:deskcolor="#d1d1d1" /><metadata
     id="metadata5186"><rdf:RDF><cc:Work
         rdf:about=""><dc:format>image/svg+xml</dc:format><dc:type
           rdf:resource="http://purl.org/dc/dcmitype/StillImage" /></cc:Work></rdf:RDF></metadata><g
     id="layer1"
     inkscape:label="Layer 1"
     inkscape:groupmode="layer"
     transform="translate(0,16)"><path
       id="path491"
       style="fill:url(#linearGradient2198);fill-opacity:1;stroke:#000000;stroke-width:0.563412;stroke-linecap:butt;stroke-linejoin:miter;stroke-dasharray:none;stroke-opacity:1"
       d="m 37.600824,-1.7496216 v 5.7237375 h 4.028579 c 2.144449,0.1383338 3.933861,1.9346099 4.028579,4.0970328 V 42.543434 c -0.04603,5.321611 -26.358163,5.035054 -26.130019,0 V 9.2458498 c 0.07603,-2.9626554 2.544219,-5.1180624 4.638724,-5.2717339 h 4.36461 v -5.7237375 z"
       sodipodi:nodetypes="ccccccccccc" /><ellipse
       style="fill:url(#linearGradient2180);fill-opacity:1;stroke:#000000;stroke-width:0.563412;stroke-dasharray:none;stop-color:#000000"
       id="path1102"
       cx="32.968292"
       cy="-2.8358607"
       rx="5.6109223"
       ry="1.3479782" /><path
       id="path1174"
       style="fill:url(#linearGradient1206);fill-opacity:1;stroke:#000000;stroke-width:0.563412;stroke-linecap:butt;stroke-linejoin:miter;stroke-dasharray:none;stroke-opacity:1"
       d="m 32.985151,-1.4878824 c -3.098825,-1e-7 -5.61092,-0.6035104 -5.592609,-1.3296814 l -0.02338,5.2691903 c 0.0045,0.7335699 2.517172,1.3370801 5.615999,1.3370802 3.098825,0 5.610921,-0.6035102 5.610921,-1.3479781 l -0.0029,0.010906 0.02338,-5.2691902 c -0.02019,0.7261674 -2.532279,1.3296777 -5.631102,1.3296777 z"
       sodipodi:nodetypes="sccssccs" /><path
       style="fill:url(#linearGradient2190);fill-opacity:1;stroke:#000000;stroke-width:0.563412;stroke-linecap:butt;stroke-linejoin:miter;stroke-dasharray:none;stroke-opacity:1"
       d="m 32.803455,-14.413229 c -0.734089,0.01589 -2.263316,2.896097 -2.438394,4.13467 -0.175078,1.2385727 -0.440733,7.2073015 -0.440733,7.2073015 2.037551,0.6944527 4.075101,0.5138461 6.112653,0 0,0 -0.491121,-5.9497564 -0.698384,-7.2314885 -0.207263,-1.281731 -1.801053,-4.126374 -2.535142,-4.110483 z"
       id="path2182"
       sodipodi:nodetypes="zzcczz" /><path
       id="path4464"
       style="fill:url(#linearGradient4475);fill-opacity:1;stroke:none;stroke-width:0.563412;stroke-linecap:butt;stroke-linejoin:miter;stroke-dasharray:none;stroke-opacity:1"
       d="m 42.560858,16.724626 0.04163,-5.896135 -19.530432,0.104996 v 0 l 0.02579,8.502105 c 6.807339,-2.916676 10.724712,-3.487191 19.463007,-2.710967 z"
       sodipodi:nodetypes="ccccccc" /><path
       id="path4466"
       style="fill:url(#linearGradient4484);fill-opacity:1;stroke:none;stroke-width:0.563412;stroke-linecap:butt;stroke-linejoin:miter;stroke-dasharray:none;stroke-opacity:1"
       d="M 42.510904,40.505585 V 26.611509 c -11.25577,2.126013 -13.268268,5.581163 -14.448021,13.894076 z"
       sodipodi:nodetypes="cccc" /><path
       id="path4488"
       style="fill:url(#linearGradient4498);fill-opacity:1;stroke:none;stroke-width:0.563412;stroke-linecap:butt;stroke-linejoin:miter;stroke-dasharray:none;stroke-opacity:1"
       d="m 23.177049,40.490048 5.148418,0.01804 C 29.880008,34.862467 32.888982,29.74045 42.504972,26.791954 l 0.0567,-10.23084 c -8.85181,-3.181786 -14.547656,-0.812726 -19.453835,2.565719 z"
       sodipodi:nodetypes="cccccc" /></g></svg>
