<?xml version="1.0" encoding="UTF-8" standalone="no"?>
<!-- Created with Inkscape (http://www.inkscape.org/) -->

<svg
   width="68.26667"
   height="68.26667"
   id="svg5181"
   version="1.1"
   inkscape:version="1.2.2 (b0a8486541, 2022-12-01)"
   sodipodi:docname="instanceSpine.svg"
   xmlns:inkscape="http://www.inkscape.org/namespaces/inkscape"
   xmlns:sodipodi="http://sodipodi.sourceforge.net/DTD/sodipodi-0.dtd"
   xmlns:xlink="http://www.w3.org/1999/xlink"
   xmlns="http://www.w3.org/2000/svg"
   xmlns:svg="http://www.w3.org/2000/svg"
   xmlns:rdf="http://www.w3.org/1999/02/22-rdf-syntax-ns#"
   xmlns:cc="http://creativecommons.org/ns#"
   xmlns:dc="http://purl.org/dc/elements/1.1/">
  <defs
     id="defs5183">
    <linearGradient
       id="linearGradient3796">
      <stop
         style="stop-color:#e3c7cd;stop-opacity:1;"
         offset="0"
         id="stop3798" />
      <stop
         style="stop-color:#a50029;stop-opacity:1;"
         offset="1"
         id="stop3800" />
    </linearGradient>
    <linearGradient
       inkscape:collect="always"
       xlink:href="#linearGradient3796"
       id="linearGradient3847"
       x1="17.071424"
       y1="41.928574"
       x2="75.071426"
       y2="46.214287"
       gradientUnits="userSpaceOnUse"
       gradientTransform="matrix(0.94853515,0,0,0.94853515,-14.978845,-32.25702)" />
    <linearGradient
       id="linearGradient3851">
      <stop
         style="stop-color:#e6eb24;stop-opacity:1;"
         offset="0"
         id="stop3853" />
      <stop
         style="stop-color:#9b825d;stop-opacity:1;"
         offset="1"
         id="stop3855" />
    </linearGradient>
    <linearGradient
       inkscape:collect="always"
       xlink:href="#linearGradient3851"
       id="linearGradient933"
       gradientUnits="userSpaceOnUse"
       gradientTransform="matrix(0.94853492,0,0,0.94853492,19.372225,-32.220757)"
       x1="13.314687"
       y1="85.406715"
       x2="40.922253"
       y2="37.851467" />
    <radialGradient
       inkscape:collect="always"
       xlink:href="#linearGradient3796"
       id="radialGradient863"
       gradientUnits="userSpaceOnUse"
       gradientTransform="matrix(1.4036729,0.69201032,-1.7841777,3.6190238,1.4345342,-105.96241)"
       cx="38.468964"
       cy="28.467295"
       fx="38.468964"
       fy="28.467295"
       r="14.863528" />
    <linearGradient
       inkscape:collect="always"
       xlink:href="#linearGradient3851"
       id="linearGradient386"
       gradientUnits="userSpaceOnUse"
       gradientTransform="matrix(0.54895438,0,0,0.54895438,12.610174,-54.860682)"
       x1="-5.8362617"
       y1="60.215748"
       x2="40.665661"
       y2="40.77549" />
    <linearGradient
       inkscape:collect="always"
       xlink:href="#linearGradient3851"
       id="linearGradient1067"
       x1="46.061321"
       y1="49.602032"
       x2="73.706764"
       y2="27.994205"
       gradientUnits="userSpaceOnUse" />
    <linearGradient
       inkscape:collect="always"
       xlink:href="#linearGradient3851"
       id="linearGradient1071"
       x1="24.527967"
       y1="3.3860736"
       x2="40.980343"
       y2="18.826059"
       gradientUnits="userSpaceOnUse" />
  </defs>
  <sodipodi:namedview
     id="base"
     pagecolor="#ffffff"
     bordercolor="#666666"
     borderopacity="1.0"
     inkscape:pageopacity="0.0"
     inkscape:pageshadow="2"
     inkscape:zoom="5.2261155"
     inkscape:cx="45.157823"
     inkscape:cy="33.294327"
     inkscape:current-layer="layer1"
     showgrid="true"
     inkscape:grid-bbox="true"
     inkscape:document-units="px"
     inkscape:window-width="1366"
     inkscape:window-height="693"
     inkscape:window-x="0"
     inkscape:window-y="0"
     inkscape:window-maximized="1"
     inkscape:showpageshadow="false"
     inkscape:pagecheckerboard="true"
     inkscape:deskcolor="#d1d1d1" />
  <metadata
     id="metadata5186">
    <rdf:RDF>
      <cc:Work
         rdf:about="">
        <dc:format>image/svg+xml</dc:format>
        <dc:type
           rdf:resource="http://purl.org/dc/dcmitype/StillImage" />
      </cc:Work>
    </rdf:RDF>
  </metadata>
  <g
     id="layer1"
     inkscape:label="Layer 1"
     inkscape:groupmode="layer"
     transform="translate(0,17.066667)">
    <g
       id="g372"
       transform="matrix(0.00371551,-0.57872732,0.57872732,0.00371551,30.116197,23.030001)"
       style="stroke-width:3.45579;stroke-dasharray:none">
      <path
         style="fill:url(#linearGradient1067);fill-opacity:1;stroke:#000000;stroke-width:3.45579;stroke-linecap:butt;stroke-linejoin:miter;stroke-dasharray:none;stroke-opacity:1"
         d="m 36.716863,10.056798 c 1.159478,9.117391 27.567646,9.944032 28.727056,-0.27101 v 32.6567 c -1.021551,9.169308 -28.207893,8.855379 -28.723811,-0.218912 z"
         id="path851"
         inkscape:connector-curvature="0"
         sodipodi:nodetypes="ccccc" />
      <ellipse
         ry="7.1140113"
         rx="14.363529"
         cy="9.9890451"
         cx="51.080395"
         style="fill:url(#linearGradient933);fill-opacity:1;fill-rule:evenodd;stroke:#000000;stroke-width:3.45579;stroke-linecap:butt;stroke-linejoin:miter;stroke-miterlimit:4;stroke-dasharray:none;stroke-opacity:1"
         id="ellipse881" />
    </g>
    <g
       id="g376"
       transform="matrix(0.57873925,0,0,0.57873925,1.6336813,12.046462)"
       style="stroke-width:3.45579;stroke-dasharray:none">
      <ellipse
         id="path3050"
         style="fill:url(#linearGradient3847);fill-opacity:1;fill-rule:evenodd;stroke:#000000;stroke-width:3.45579;stroke-linecap:butt;stroke-linejoin:miter;stroke-miterlimit:4;stroke-dasharray:none;stroke-opacity:1"
         cx="16.729328"
         cy="9.9527931"
         rx="14.363533"
         ry="7.1140137" />
      <path
         sodipodi:nodetypes="ccccc"
         inkscape:connector-curvature="0"
         id="path861"
         d="m 2.4311492,10.056798 c 1.159478,9.117391 27.5676468,9.944032 28.7270568,-0.27101 v 32.6567 C 30.136656,51.611796 2.9503122,51.297867 2.4343942,42.223576 Z"
         style="fill:url(#radialGradient863);fill-opacity:1;stroke:#000000;stroke-width:3.45579;stroke-linecap:butt;stroke-linejoin:miter;stroke-dasharray:none;stroke-opacity:1" />
    </g>
    <g
       id="g1566"
       style="stroke-width:2;stroke-dasharray:none"
       transform="rotate(-105.88897,35.850969,14.951386)">
      <path
         style="fill:url(#linearGradient1071);fill-opacity:1;stroke:#000000;stroke-width:2;stroke-linecap:butt;stroke-linejoin:miter;stroke-dasharray:none;stroke-opacity:1"
         d="M 37.859314,1.829678 C 33.855521,5.3314431 41.988535,18.280057 47.26845,15.53731 L 31.586205,26.085599 C 26.852998,28.55677 18.222417,15.400074 22.413385,12.221278 Z"
         id="path378"
         inkscape:connector-curvature="0"
         sodipodi:nodetypes="ccccc" />
      <ellipse
         ry="4.1171575"
         rx="8.3127384"
         cy="-30.432213"
         cx="30.960936"
         style="fill:url(#linearGradient386);fill-opacity:1;fill-rule:evenodd;stroke:#000000;stroke-width:2;stroke-linecap:butt;stroke-linejoin:miter;stroke-miterlimit:4;stroke-dasharray:none;stroke-opacity:1"
         id="ellipse380"
         transform="rotate(56.074189)" />
    </g>
    <path
       style="fill:none;stroke:#24449e;stroke-width:5;stroke-linecap:round;stroke-dasharray:none;stroke-opacity:1"
       id="path1855"
       sodipodi:type="arc"
       sodipodi:cx="10.382601"
       sodipodi:cy="-7.4558597"
       sodipodi:rx="53.645016"
       sodipodi:ry="53.645016"
       sodipodi:start="0.0101222"
       sodipodi:end="1.5567417"
       sodipodi:arc-type="arc"
       d="M 64.024868,-6.9128634 A 53.645016,53.645016 0 0 1 11.136537,46.183858"
       sodipodi:open="true" />
  </g>
</svg>
