<?xml version="1.0" encoding="UTF-8" standalone="no"?>
<!-- Created with Inkscape (http://www.inkscape.org/) -->

<svg
   width="64"
   height="64"
   id="svg5181"
   version="1.1"
   inkscape:version="1.2.2 (b0a8486541, 2022-12-01)"
   sodipodi:docname="constructionSkin.svg"
   xmlns:inkscape="http://www.inkscape.org/namespaces/inkscape"
   xmlns:sodipodi="http://sodipodi.sourceforge.net/DTD/sodipodi-0.dtd"
   xmlns:xlink="http://www.w3.org/1999/xlink"
   xmlns="http://www.w3.org/2000/svg"
   xmlns:svg="http://www.w3.org/2000/svg"
   xmlns:rdf="http://www.w3.org/1999/02/22-rdf-syntax-ns#"
   xmlns:cc="http://creativecommons.org/ns#"
   xmlns:dc="http://purl.org/dc/elements/1.1/">
  <defs
     id="defs5183">
    <linearGradient
       inkscape:collect="always"
       id="linearGradient1544">
      <stop
         style="stop-color:#a0a411;stop-opacity:1;"
         offset="0"
         id="stop1540" />
      <stop
         style="stop-color:#e6eb24;stop-opacity:1;"
         offset="1"
         id="stop1542" />
    </linearGradient>
    <linearGradient
       inkscape:collect="always"
       id="linearGradient1538">
      <stop
         style="stop-color:#a0a411;stop-opacity:1;"
         offset="0"
         id="stop1534" />
      <stop
         style="stop-color:#e6eb24;stop-opacity:1;"
         offset="1"
         id="stop1536" />
    </linearGradient>
    <linearGradient
       inkscape:collect="always"
       id="linearGradient1497">
      <stop
         style="stop-color:#a0a411;stop-opacity:1;"
         offset="0"
         id="stop1493" />
      <stop
         style="stop-color:#e6eb24;stop-opacity:1;"
         offset="1"
         id="stop1495" />
    </linearGradient>
    <linearGradient
       id="linearGradient865"
       inkscape:collect="always">
      <stop
         id="stop861"
         offset="0"
         style="stop-color:#90d7e3;stop-opacity:1" />
      <stop
         id="stop863"
         offset="1"
         style="stop-color:#458f9c;stop-opacity:1" />
    </linearGradient>
    <radialGradient
       inkscape:collect="always"
       xlink:href="#linearGradient865"
       id="radialGradient352"
       gradientUnits="userSpaceOnUse"
       gradientTransform="matrix(1.435798,-1.5340872,0.38711579,0.36231322,-16.33979,54.542554)"
       cx="32.167496"
       cy="37.56731"
       fx="32.167496"
       fy="37.56731"
       r="28.001986" />
    <linearGradient
       inkscape:collect="always"
       xlink:href="#linearGradient1497"
       id="linearGradient1499"
       x1="89.158409"
       y1="-18.721704"
       x2="98.331459"
       y2="-5.729064"
       gradientUnits="userSpaceOnUse"
       gradientTransform="translate(-54.000206,10.963719)" />
    <linearGradient
       inkscape:collect="always"
       xlink:href="#linearGradient1538"
       id="linearGradient1503"
       gradientUnits="userSpaceOnUse"
       gradientTransform="translate(-81.9724,43.854627)"
       x1="83.788414"
       y1="-15.029519"
       x2="96.150253"
       y2="-6.3029108" />
    <linearGradient
       inkscape:collect="always"
       xlink:href="#linearGradient1544"
       id="linearGradient1532"
       gradientUnits="userSpaceOnUse"
       gradientTransform="translate(-64.217024,29.940356)"
       x1="88.765129"
       y1="-13.603312"
       x2="99.386223"
       y2="-5.2136302" />
  </defs>
  <sodipodi:namedview
     id="base"
     pagecolor="#ffffff"
     bordercolor="#666666"
     borderopacity="1.0"
     inkscape:pageopacity="0.0"
     inkscape:pageshadow="2"
     inkscape:zoom="5.959775"
     inkscape:cx="30.034691"
     inkscape:cy="33.726105"
     inkscape:current-layer="layer1"
     showgrid="true"
     inkscape:grid-bbox="true"
     inkscape:document-units="px"
     inkscape:window-width="1366"
     inkscape:window-height="693"
     inkscape:window-x="0"
     inkscape:window-y="0"
     inkscape:window-maximized="1"
     showguides="false"
     inkscape:pagecheckerboard="true"
     inkscape:showpageshadow="false"
     inkscape:deskcolor="#d1d1d1" />
  <metadata
     id="metadata5186">
    <rdf:RDF>
      <cc:Work
         rdf:about="">
        <dc:format>image/svg+xml</dc:format>
        <dc:type
           rdf:resource="http://purl.org/dc/dcmitype/StillImage" />
        <dc:title />
      </cc:Work>
    </rdf:RDF>
  </metadata>
  <g
     id="layer1"
     inkscape:label="Layer 1"
     inkscape:groupmode="layer"
     transform="translate(0,12.799997)">
    <path
       sodipodi:nodetypes="ccccc"
       inkscape:connector-curvature="0"
       id="path350"
       d="M 61.524512,6.4138812 C 49.249208,29.071528 36.395927,37.228631 17.989953,49.249901 13.834381,34.350124 10.121501,33.399748 2.0670123,31.26886 20.821475,18.308554 27.609154,10.701169 34.163398,-10.620062 36.73786,3.6294805 46.844562,9.6056225 61.524512,6.4138812 Z"
       style="fill:url(#radialGradient352);fill-opacity:1;stroke:#000000;stroke-width:3;stroke-linecap:butt;stroke-linejoin:round;stroke-miterlimit:4;stroke-dasharray:none;stroke-opacity:1" />
    <path
       style="fill:url(#linearGradient1499);fill-opacity:1;stroke:#000000;stroke-width:1.5;stroke-linecap:butt;stroke-linejoin:miter;stroke-dasharray:none;stroke-opacity:1"
       d="M 58.858857,4.4878138 C 49.026305,6.1963368 41.443395,4.7205005 37.800621,-9.3161339 36.835811,-13.033819 30.52875,-11.877498 31.402147,-7.5803973 34.572047,8.015472 46.782015,14.140763 59.630932,10.708538 64.184347,9.4922212 63.177658,3.7373707 58.858857,4.4878138 Z"
       id="path1274"
       sodipodi:nodetypes="sssss" />
    <path
       style="fill:url(#linearGradient1503);fill-opacity:1;stroke:#000000;stroke-width:1.5;stroke-linecap:butt;stroke-linejoin:miter;stroke-dasharray:none;stroke-opacity:1"
       d="M 21.48133,46.423414 C 19.449474,37.38239 14.026595,30.827549 5.0579047,28.028856 c -3.7067443,-1.156695 -5.57514344,4.359577 -1.9156882,5.84526 6.9895025,2.83763 10.1097605,5.569243 12.0290825,13.509401 1.110411,4.593725 7.273644,3.327627 6.310031,-0.960103 z"
       id="path1501"
       sodipodi:nodetypes="sssss" />
    <path
       style="fill:url(#linearGradient1532);fill-opacity:1;stroke:#000000;stroke-width:1.5;stroke-linecap:butt;stroke-linejoin:miter;stroke-dasharray:none;stroke-opacity:1"
       d="M 42.935478,24.493977 C 35.103297,21.984824 31.982873,18.585131 27.386906,12.065343 c -2.715497,-3.8521743 -7.755222,0.690366 -5.076976,4.978675 4.051408,6.486966 10.347085,11.742671 17.522743,13.748271 5.108649,1.42787 8.964525,-4.420425 3.102805,-6.298312 z"
       id="path1530"
       sodipodi:nodetypes="sssss" />
  </g>
</svg>
