<?xml version="1.0" encoding="UTF-8" standalone="no"?>
<svg
   width="64"
   height="64"
   id="svg5181"
   version="1.1"
   inkscape:version="1.2.2 (b0a8486541, 2022-12-01)"
   sodipodi:docname="constructionSplit.svg"
   xmlns:inkscape="http://www.inkscape.org/namespaces/inkscape"
   xmlns:sodipodi="http://sodipodi.sourceforge.net/DTD/sodipodi-0.dtd"
   xmlns:xlink="http://www.w3.org/1999/xlink"
   xmlns="http://www.w3.org/2000/svg"
   xmlns:svg="http://www.w3.org/2000/svg"
   xmlns:rdf="http://www.w3.org/1999/02/22-rdf-syntax-ns#"
   xmlns:cc="http://creativecommons.org/ns#"
   xmlns:dc="http://purl.org/dc/elements/1.1/">
  <defs
     id="defs5183">
    <linearGradient
       id="linearGradient3796">
      <stop
         style="stop-color:#e3c7cd;stop-opacity:1;"
         offset="0"
         id="stop3798" />
      <stop
         style="stop-color:#a50029;stop-opacity:1;"
         offset="1"
         id="stop3800" />
    </linearGradient>
    <linearGradient
       inkscape:collect="always"
       xlink:href="#linearGradient3796"
       id="linearGradient884"
       x1="10.767841"
       y1="-16.807978"
       x2="88.711754"
       y2="29.739853"
       gradientUnits="userSpaceOnUse"
       gradientTransform="matrix(0.81,0,0,0.81,1.2136579,0.62471478)" />
    <linearGradient
       inkscape:collect="always"
       xlink:href="#linearGradient3796"
       id="linearGradient892"
       x1="43.266808"
       y1="-14.655835"
       x2="54.063774"
       y2="30.167999"
       gradientUnits="userSpaceOnUse"
       gradientTransform="matrix(0.81,0,0,0.81,11.576005,8.1065824)" />
    <linearGradient
       inkscape:collect="always"
       xlink:href="#linearGradient3796"
       id="linearGradient900"
       x1="0.42380917"
       y1="-3.649617"
       x2="21.460869"
       y2="40.958721"
       gradientUnits="userSpaceOnUse"
       gradientTransform="matrix(0.81,0,0,0.81,1.2136579,0.62471478)" />
    <linearGradient
       inkscape:collect="always"
       xlink:href="#linearGradient3796"
       id="linearGradient878"
       gradientUnits="userSpaceOnUse"
       gradientTransform="matrix(0.81,0,0,0.81,11.576008,8.1065824)"
       x1="10.767841"
       y1="-16.807978"
       x2="88.711754"
       y2="29.739853" />
    <linearGradient
       inkscape:collect="always"
       xlink:href="#linearGradient3796"
       id="linearGradient882"
       gradientUnits="userSpaceOnUse"
       gradientTransform="matrix(0.81,0,0,0.81,11.576005,8.1065824)"
       x1="0.42380917"
       y1="-3.649617"
       x2="21.460869"
       y2="40.958721" />
    <linearGradient
       inkscape:collect="always"
       xlink:href="#linearGradient3796"
       id="linearGradient366"
       gradientUnits="userSpaceOnUse"
       gradientTransform="matrix(0.81,0,0,0.81,-11.648531,-7.9891755)"
       x1="43.266808"
       y1="-14.655835"
       x2="54.063774"
       y2="30.167999" />
  </defs>
  <sodipodi:namedview
     id="base"
     pagecolor="#ffffff"
     bordercolor="#666666"
     borderopacity="1.0"
     inkscape:pageopacity="0.0"
     inkscape:pageshadow="2"
     inkscape:zoom="4.3566236"
     inkscape:cx="62.548438"
     inkscape:cy="18.133309"
     inkscape:current-layer="layer1"
     showgrid="true"
     inkscape:grid-bbox="true"
     inkscape:document-units="px"
     inkscape:window-width="1366"
     inkscape:window-height="693"
     inkscape:window-x="0"
     inkscape:window-y="0"
     inkscape:window-maximized="1"
     inkscape:showpageshadow="false"
     inkscape:pagecheckerboard="true"
     inkscape:document-rotation="0"
     inkscape:deskcolor="#d1d1d1" />
  <metadata
     id="metadata5186">
    <rdf:RDF>
      <cc:Work
         rdf:about="">
        <dc:format>image/svg+xml</dc:format>
        <dc:type
           rdf:resource="http://purl.org/dc/dcmitype/StillImage" />
      </cc:Work>
    </rdf:RDF>
  </metadata>
  <g
     id="layer1"
     inkscape:label="Layer 1"
     inkscape:groupmode="layer"
     transform="translate(0,16)">
    <path
       style="opacity:0.613065;fill:none;stroke:none;stroke-width:1.03877;stroke-linejoin:round"
       d="m 25.383391,15.056026 c -2.40732,-0.26604 -3.848724,-0.666648 -5.638135,-1.567 -2.148395,-1.080967 -3.168445,-2.279547 -3.001204,-3.5264391 0.134776,-1.0048453 0.965172,-2.1126767 2.04478,-2.7279329 0.496652,-0.2830427 0.786867,-0.58444 0.723994,-0.7518979 -0.05775,-0.1537222 -0.104927,-0.4076527 -0.104927,-0.5642922 0,-0.1566391 -2.322351,-1.8671463 -5.160793,-3.8011269 -3.936695,-2.68228679 -5.0691392,-3.5488701 -4.7743891,-3.6535261 0.2125213,-0.075456 5.4965681,-1.3948213 11.7423161,-2.9319151 l 11.355925,-2.7947155 8.744598,6.46427968 c 4.809521,3.55535312 8.718224,6.48720522 8.686011,6.51522602 -0.03216,0.028025 -2.655634,0.5963797 -5.829813,1.2630207 -3.17418,0.6666398 -5.818457,1.252501 -5.876162,1.3019121 -0.05775,0.049413 -0.08216,0.6076837 -0.05443,1.2406032 0.0618,1.407785 -0.269551,2.104494 -1.463864,3.07764 -2.272795,1.851907 -7.217157,2.917752 -11.393946,2.456164 v 0 z"
       id="path3042"
       inkscape:connector-curvature="0" />
    <path
       style="fill:url(#linearGradient900);fill-opacity:1;stroke:#000000;stroke-width:0.81px;stroke-linecap:butt;stroke-linejoin:round;stroke-opacity:1"
       d="m 5.1039219,-4.8556046 0.00672,25.9980176 6.4439411,5.312452 0.231885,-26.51916693 z"
       id="path838"
       inkscape:connector-curvature="0"
       sodipodi:nodetypes="ccccc" />
    <path
       style="fill:url(#linearGradient884);fill-opacity:1;stroke:#000000;stroke-width:0.81px;stroke-linecap:butt;stroke-linejoin:round;stroke-opacity:1"
       d="m 5.1039219,-4.8556046 24.2108131,-6.0785684 6.408466,4.3567981 -24.09662,6.46778713 z"
       id="path832"
       inkscape:connector-curvature="0"
       sodipodi:nodetypes="ccccc" />
    <path
       style="fill:url(#linearGradient366);fill-opacity:1;stroke:#000000;stroke-width:0.81px;stroke-linecap:butt;stroke-linejoin:round;stroke-opacity:1"
       d="m 11.716527,26.476144 24.07912,-5.916528 -0.01414,-27.0678738 -24.136243,6.36375624 z"
       id="path364"
       inkscape:connector-curvature="0"
       sodipodi:nodetypes="ccccc" />
    <path
       sodipodi:nodetypes="ccccc"
       inkscape:connector-curvature="0"
       id="path3456"
       d="M 60.270533,-13.874325 3.5209846,-0.29330396 3.8150576,46.59649 59.431523,30.921454 Z"
       style="opacity:0.5;fill:#68b2be;fill-opacity:1;stroke:#000000;stroke-width:1;stroke-linecap:butt;stroke-linejoin:round;stroke-miterlimit:4;stroke-dasharray:none;stroke-opacity:1" />
    <path
       style="fill:url(#linearGradient892);fill-opacity:1;stroke:#000000;stroke-width:0.81px;stroke-linecap:butt;stroke-linejoin:round;stroke-opacity:1"
       d="M 34.954766,43.23769 59.020182,36.655374 59.00604,9.5874993 34.869797,15.951256 Z"
       id="path834"
       inkscape:connector-curvature="0"
       sodipodi:nodetypes="ccccc" />
    <path
       style="fill:url(#linearGradient878);fill-opacity:1;stroke:#000000;stroke-width:0.81px;stroke-linecap:butt;stroke-linejoin:round;stroke-opacity:1"
       d="M 26.423401,10.142466 51.055047,3.6312721 59.00604,9.5874993 34.869797,15.951256 Z"
       id="path876"
       inkscape:connector-curvature="0"
       sodipodi:nodetypes="ccccc" />
    <path
       style="fill:url(#linearGradient882);fill-opacity:1;stroke:#000000;stroke-width:0.81px;stroke-linecap:butt;stroke-linejoin:round;stroke-opacity:1"
       d="m 26.423401,10.142466 0.428133,27.28197 8.103232,5.813254 -0.08497,-27.286434 z"
       id="path880"
       inkscape:connector-curvature="0"
       sodipodi:nodetypes="ccccc" />
  </g>
</svg>
